<?xml version="1.0" encoding="UTF-8" standalone="no"?>
<svg
   xmlns:dc="http://purl.org/dc/elements/1.1/"
   xmlns:cc="http://creativecommons.org/ns#"
   xmlns:rdf="http://www.w3.org/1999/02/22-rdf-syntax-ns#"
   xmlns:svg="http://www.w3.org/2000/svg"
   xmlns="http://www.w3.org/2000/svg"
   xmlns:sodipodi="http://sodipodi.sourceforge.net/DTD/sodipodi-0.dtd"
   xmlns:inkscape="http://www.inkscape.org/namespaces/inkscape"
   viewBox="0 0 16 16"
   version="1.1"
   id="svg4"
   sodipodi:docname="maximize.svg"
   width="16"
   height="16"
   inkscape:version="0.92.4 (5da689c313, 2019-01-14)">
  <metadata
     id="metadata10">
    <rdf:RDF>
      <cc:Work
         rdf:about="">
        <dc:format>image/svg+xml</dc:format>
        <dc:type
           rdf:resource="http://purl.org/dc/dcmitype/StillImage" />
        <dc:title></dc:title>
      </cc:Work>
    </rdf:RDF>
  </metadata>
  <defs
     id="defs8" />
  <sodipodi:namedview
     pagecolor="#ffffff"
     bordercolor="#666666"
     borderopacity="1"
     objecttolerance="10"
     gridtolerance="10"
     guidetolerance="10"
     inkscape:pageopacity="0"
     inkscape:pageshadow="2"
     inkscape:window-width="1920"
     inkscape:window-height="1019"
     id="namedview6"
     showgrid="false"
     inkscape:zoom="4"
     inkscape:cx="-23.647625"
     inkscape:cy="5.583123"
     inkscape:window-x="0"
     inkscape:window-y="0"
     inkscape:window-maximized="1"
     inkscape:current-layer="svg4"
     inkscape:showpageshadow="false" />
  <path
     d="M 9.4978442,0.50000018 H 15.497832 V 1.9999983 H 9.4978442 Z"
     id="path2"
     inkscape:connector-curvature="0"
     style="stroke-width:0.94868398;fill:#1a1a1a" />
  <path
     d="m 0.5,14.000001 h 15 V 15.5 h -15 z"
     id="path2-6"
     inkscape:connector-curvature="0"
     style="stroke-width:1.50000072;fill:#1a1a1a" />
  <path
     d="m 0.5,0.5000002 h 5 v 1.4999981 h -5 z"
     id="path2-36"
     inkscape:connector-curvature="0"
     style="stroke-width:0.86602581;fill:#1a1a1a" />
  <path
     d="M 14.000001,6.499962 V 0.4999628 H 15.5 V 6.499962 Z"
     id="path2-6-7"
     inkscape:connector-curvature="0"
     style="fill:#1a1a1a;stroke-width:0.9486838" />
  <path
     d="M 0.5,15.5 V 0.5000002 H 1.999999 V 15.5 Z"
     id="path2-6-5"
     inkscape:connector-curvature="0"
     style="stroke-width:1.50000072;fill:#1a1a1a" />
  <path
     d="m 14.000001,15.5 v -5 H 15.5 v 5 z"
     id="path2-6-5-3"
     inkscape:connector-curvature="0"
     style="stroke-width:0.86602581;fill:#1a1a1a" />
  <path
     d="M 7.328639,7.5977605 14.399707,0.52669241 15.460367,1.5873519 8.389298,8.6584196 Z"
     id="path2-6-56"
     inkscape:connector-curvature="0"
     style="fill:#1a1a1a;stroke-width:1.22474539" />
</svg>
